-- Merging decision tree log ---
manifest
ADDED from /Users/balavishnu/Documents/Android Dev/Projects/Android TCP/AndroidTCPClient/app/src/main/AndroidManifest.xml:2:1-27:12
	package
		ADDED from /Users/balavishnu/Documents/Android Dev/Projects/Android TCP/AndroidTCPClient/app/src/main/AndroidManifest.xml:3:5-32
		INJECTED from /Users/balavishnu/Documents/Android Dev/Projects/Android TCP/AndroidTCPClient/app/src/main/AndroidManifest.xml
		INJECTED from /Users/balavishnu/Documents/Android Dev/Projects/Android TCP/AndroidTCPClient/app/src/main/AndroidManifest.xml
	android:versionName
		ADDED from /Users/balavishnu/Documents/Android Dev/Projects/Android TCP/AndroidTCPClient/app/src/main/AndroidManifest.xml:5:5-30
		INJECTED from /Users/balavishnu/Documents/Android Dev/Projects/Android TCP/AndroidTCPClient/app/src/main/AndroidManifest.xml
		INJECTED from /Users/balavishnu/Documents/Android Dev/Projects/Android TCP/AndroidTCPClient/app/src/main/AndroidManifest.xml
	android:versionCode
		ADDED from /Users/balavishnu/Documents/Android Dev/Projects/Android TCP/AndroidTCPClient/app/src/main/AndroidManifest.xml:4:5-28
		INJECTED from /Users/balavishnu/Documents/Android Dev/Projects/Android TCP/AndroidTCPClient/app/src/main/AndroidManifest.xml
		INJECTED from /Users/balavishnu/Documents/Android Dev/Projects/Android TCP/AndroidTCPClient/app/src/main/AndroidManifest.xml
	xmlns:android
		ADDED from /Users/balavishnu/Documents/Android Dev/Projects/Android TCP/AndroidTCPClient/app/src/main/AndroidManifest.xml:2:11-69
uses-permission#android.permission.INTERNET
ADDED from /Users/balavishnu/Documents/Android Dev/Projects/Android TCP/AndroidTCPClient/app/src/main/AndroidManifest.xml:7:5-67
	android:name
		ADDED from /Users/balavishnu/Documents/Android Dev/Projects/Android TCP/AndroidTCPClient/app/src/main/AndroidManifest.xml:7:22-64
application
ADDED from /Users/balavishnu/Documents/Android Dev/Projects/Android TCP/AndroidTCPClient/app/src/main/AndroidManifest.xml:9:5-25:19
MERGED from [com.android.support:appcompat-v7:25.3.1] /Users/balavishnu/Documents/Android Dev/Projects/Android TCP/AndroidTCPClient/app/build/intermediates/exploded-aar/com.android.support/appcompat-v7/25.3.1/AndroidManifest.xml:29:5-20
MERGED from [com.android.support:support-v4:25.3.1] /Users/balavishnu/Documents/Android Dev/Projects/Android TCP/AndroidTCPClient/app/build/intermediates/exploded-aar/com.android.support/support-v4/25.3.1/AndroidManifest.xml:29:5-20
MERGED from [com.android.support:support-fragment:25.3.1] /Users/balavishnu/Documents/Android Dev/Projects/Android TCP/AndroidTCPClient/app/build/intermediates/exploded-aar/com.android.support/support-fragment/25.3.1/AndroidManifest.xml:29:5-20
MERGED from [com.android.support:support-media-compat:25.3.1] /Users/balavishnu/Documents/Android Dev/Projects/Android TCP/AndroidTCPClient/app/build/intermediates/exploded-aar/com.android.support/support-media-compat/25.3.1/AndroidManifest.xml:29:5-20
MERGED from [com.android.support:support-core-ui:25.3.1] /Users/balavishnu/Documents/Android Dev/Projects/Android TCP/AndroidTCPClient/app/build/intermediates/exploded-aar/com.android.support/support-core-ui/25.3.1/AndroidManifest.xml:29:5-20
MERGED from [com.android.support:support-core-utils:25.3.1] /Users/balavishnu/Documents/Android Dev/Projects/Android TCP/AndroidTCPClient/app/build/intermediates/exploded-aar/com.android.support/support-core-utils/25.3.1/AndroidManifest.xml:29:5-20
MERGED from [com.android.support:animated-vector-drawable:25.3.1] /Users/balavishnu/Documents/Android Dev/Projects/Android TCP/AndroidTCPClient/app/build/intermediates/exploded-aar/com.android.support/animated-vector-drawable/25.3.1/AndroidManifest.xml:26:5-20
MERGED from [com.android.support:support-vector-drawable:25.3.1] /Users/balavishnu/Documents/Android Dev/Projects/Android TCP/AndroidTCPClient/app/build/intermediates/exploded-aar/com.android.support/support-vector-drawable/25.3.1/AndroidManifest.xml:26:5-20
MERGED from [com.android.support:support-compat:25.3.1] /Users/balavishnu/Documents/Android Dev/Projects/Android TCP/AndroidTCPClient/app/build/intermediates/exploded-aar/com.android.support/support-compat/25.3.1/AndroidManifest.xml:29:5-20
	android:label
		ADDED from /Users/balavishnu/Documents/Android Dev/Projects/Android TCP/AndroidTCPClient/app/src/main/AndroidManifest.xml:11:9-41
	android:name
		ADDED from /Users/balavishnu/Documents/Android Dev/Projects/Android TCP/AndroidTCPClient/app/src/main/AndroidManifest.xml:10:9-44
activity#ro.kazy.tcpclient.ClientActivity
ADDED from /Users/balavishnu/Documents/Android Dev/Projects/Android TCP/AndroidTCPClient/app/src/main/AndroidManifest.xml:12:9-16:20
	android:label
		ADDED from /Users/balavishnu/Documents/Android Dev/Projects/Android TCP/AndroidTCPClient/app/src/main/AndroidManifest.xml:14:13-45
	android:name
		ADDED from /Users/balavishnu/Documents/Android Dev/Projects/Android TCP/AndroidTCPClient/app/src/main/AndroidManifest.xml:13:13-43
activity#ro.kazy.tcpclient.PreferencesActivity
ADDED from /Users/balavishnu/Documents/Android Dev/Projects/Android TCP/AndroidTCPClient/app/src/main/AndroidManifest.xml:17:9-57
	android:name
		ADDED from /Users/balavishnu/Documents/Android Dev/Projects/Android TCP/AndroidTCPClient/app/src/main/AndroidManifest.xml:17:19-54
activity#smartjar.SmartJarActivity
ADDED from /Users/balavishnu/Documents/Android Dev/Projects/Android TCP/AndroidTCPClient/app/src/main/AndroidManifest.xml:18:9-24:20
	android:name
		ADDED from /Users/balavishnu/Documents/Android Dev/Projects/Android TCP/AndroidTCPClient/app/src/main/AndroidManifest.xml:18:19-59
intent-filter#android.intent.action.MAIN+android.intent.category.LAUNCHER
ADDED from /Users/balavishnu/Documents/Android Dev/Projects/Android TCP/AndroidTCPClient/app/src/main/AndroidManifest.xml:19:13-23:29
action#android.intent.action.MAIN
ADDED from /Users/balavishnu/Documents/Android Dev/Projects/Android TCP/AndroidTCPClient/app/src/main/AndroidManifest.xml:20:17-69
	android:name
		ADDED from /Users/balavishnu/Documents/Android Dev/Projects/Android TCP/AndroidTCPClient/app/src/main/AndroidManifest.xml:20:25-66
category#android.intent.category.LAUNCHER
ADDED from /Users/balavishnu/Documents/Android Dev/Projects/Android TCP/AndroidTCPClient/app/src/main/AndroidManifest.xml:22:17-77
	android:name
		ADDED from /Users/balavishnu/Documents/Android Dev/Projects/Android TCP/AndroidTCPClient/app/src/main/AndroidManifest.xml:22:27-74
uses-sdk
INJECTED from /Users/balavishnu/Documents/Android Dev/Projects/Android TCP/AndroidTCPClient/app/src/main/AndroidManifest.xml reason: use-sdk injection requested
MERGED from [com.android.support:appcompat-v7:25.3.1] /Users/balavishnu/Documents/Android Dev/Projects/Android TCP/AndroidTCPClient/app/build/intermediates/exploded-aar/com.android.support/appcompat-v7/25.3.1/AndroidManifest.xml:21:5-23:78
MERGED from [com.android.support:support-v4:25.3.1] /Users/balavishnu/Documents/Android Dev/Projects/Android TCP/AndroidTCPClient/app/build/intermediates/exploded-aar/com.android.support/support-v4/25.3.1/AndroidManifest.xml:21:5-23:54
MERGED from [com.android.support:support-fragment:25.3.1] /Users/balavishnu/Documents/Android Dev/Projects/Android TCP/AndroidTCPClient/app/build/intermediates/exploded-aar/com.android.support/support-fragment/25.3.1/AndroidManifest.xml:21:5-23:60
MERGED from [com.android.support:support-media-compat:25.3.1] /Users/balavishnu/Documents/Android Dev/Projects/Android TCP/AndroidTCPClient/app/build/intermediates/exploded-aar/com.android.support/support-media-compat/25.3.1/AndroidManifest.xml:21:5-23:63
MERGED from [com.android.support:support-core-ui:25.3.1] /Users/balavishnu/Documents/Android Dev/Projects/Android TCP/AndroidTCPClient/app/build/intermediates/exploded-aar/com.android.support/support-core-ui/25.3.1/AndroidManifest.xml:21:5-23:58
MERGED from [com.android.support:support-core-utils:25.3.1] /Users/balavishnu/Documents/Android Dev/Projects/Android TCP/AndroidTCPClient/app/build/intermediates/exploded-aar/com.android.support/support-core-utils/25.3.1/AndroidManifest.xml:21:5-23:61
MERGED from [com.android.support:animated-vector-drawable:25.3.1] /Users/balavishnu/Documents/Android Dev/Projects/Android TCP/AndroidTCPClient/app/build/intermediates/exploded-aar/com.android.support/animated-vector-drawable/25.3.1/AndroidManifest.xml:20:5-44
MERGED from [com.android.support:support-vector-drawable:25.3.1] /Users/balavishnu/Documents/Android Dev/Projects/Android TCP/AndroidTCPClient/app/build/intermediates/exploded-aar/com.android.support/support-vector-drawable/25.3.1/AndroidManifest.xml:20:5-43
MERGED from [com.android.support:support-compat:25.3.1] /Users/balavishnu/Documents/Android Dev/Projects/Android TCP/AndroidTCPClient/app/build/intermediates/exploded-aar/com.android.support/support-compat/25.3.1/AndroidManifest.xml:21:5-23:58
	tools:overrideLibrary
		ADDED from [com.android.support:appcompat-v7:25.3.1] /Users/balavishnu/Documents/Android Dev/Projects/Android TCP/AndroidTCPClient/app/build/intermediates/exploded-aar/com.android.support/appcompat-v7/25.3.1/AndroidManifest.xml:23:9-75
	android:targetSdkVersion
		INJECTED from /Users/balavishnu/Documents/Android Dev/Projects/Android TCP/AndroidTCPClient/app/src/main/AndroidManifest.xml
		INJECTED from /Users/balavishnu/Documents/Android Dev/Projects/Android TCP/AndroidTCPClient/app/src/main/AndroidManifest.xml
	android:minSdkVersion
		INJECTED from /Users/balavishnu/Documents/Android Dev/Projects/Android TCP/AndroidTCPClient/app/src/main/AndroidManifest.xml
		INJECTED from /Users/balavishnu/Documents/Android Dev/Projects/Android TCP/AndroidTCPClient/app/src/main/AndroidManifest.xml
meta-data#android.support.VERSION
ADDED from [com.android.support:appcompat-v7:25.3.1] /Users/balavishnu/Documents/Android Dev/Projects/Android TCP/AndroidTCPClient/app/build/intermediates/exploded-aar/com.android.support/appcompat-v7/25.3.1/AndroidManifest.xml:25:5-27:34
MERGED from [com.android.support:support-v4:25.3.1] /Users/balavishnu/Documents/Android Dev/Projects/Android TCP/AndroidTCPClient/app/build/intermediates/exploded-aar/com.android.support/support-v4/25.3.1/AndroidManifest.xml:25:5-27:34
MERGED from [com.android.support:support-fragment:25.3.1] /Users/balavishnu/Documents/Android Dev/Projects/Android TCP/AndroidTCPClient/app/build/intermediates/exploded-aar/com.android.support/support-fragment/25.3.1/AndroidManifest.xml:25:5-27:34
MERGED from [com.android.support:support-media-compat:25.3.1] /Users/balavishnu/Documents/Android Dev/Projects/Android TCP/AndroidTCPClient/app/build/intermediates/exploded-aar/com.android.support/support-media-compat/25.3.1/AndroidManifest.xml:25:5-27:34
MERGED from [com.android.support:support-core-ui:25.3.1] /Users/balavishnu/Documents/Android Dev/Projects/Android TCP/AndroidTCPClient/app/build/intermediates/exploded-aar/com.android.support/support-core-ui/25.3.1/AndroidManifest.xml:25:5-27:34
MERGED from [com.android.support:support-core-utils:25.3.1] /Users/balavishnu/Documents/Android Dev/Projects/Android TCP/AndroidTCPClient/app/build/intermediates/exploded-aar/com.android.support/support-core-utils/25.3.1/AndroidManifest.xml:25:5-27:34
MERGED from [com.android.support:animated-vector-drawable:25.3.1] /Users/balavishnu/Documents/Android Dev/Projects/Android TCP/AndroidTCPClient/app/build/intermediates/exploded-aar/com.android.support/animated-vector-drawable/25.3.1/AndroidManifest.xml:22:5-24:34
MERGED from [com.android.support:support-vector-drawable:25.3.1] /Users/balavishnu/Documents/Android Dev/Projects/Android TCP/AndroidTCPClient/app/build/intermediates/exploded-aar/com.android.support/support-vector-drawable/25.3.1/AndroidManifest.xml:22:5-24:34
MERGED from [com.android.support:support-compat:25.3.1] /Users/balavishnu/Documents/Android Dev/Projects/Android TCP/AndroidTCPClient/app/build/intermediates/exploded-aar/com.android.support/support-compat/25.3.1/AndroidManifest.xml:25:5-27:34
	android:value
		ADDED from [com.android.support:appcompat-v7:25.3.1] /Users/balavishnu/Documents/Android Dev/Projects/Android TCP/AndroidTCPClient/app/build/intermediates/exploded-aar/com.android.support/appcompat-v7/25.3.1/AndroidManifest.xml:27:9-31
	android:name
		ADDED from [com.android.support:appcompat-v7:25.3.1] /Users/balavishnu/Documents/Android Dev/Projects/Android TCP/AndroidTCPClient/app/build/intermediates/exploded-aar/com.android.support/appcompat-v7/25.3.1/AndroidManifest.xml:26:9-47
